module ovirt.org/ovirt-img

// imageio-go is part of this repository.
replace ovirt.org/imageio => ../go

go 1.16

require (
	libguestfs.org/libnbd v1.11.3-4-g3226ff802
	ovirt.org/imageio v0.0.0-00010101000000-000000000000
)
